module go3

go 1.17

require (
	github.com/joho/godotenv v1.4.0
	gorm.io/driver/mysql v1.1.3
	gorm.io/gorm v1.22.2
)

require (
	github.com/gin-contrib/sse v0.1.0 // indirect
	github.com/go-playground/locales v0.14.0 // indirect
	github.com/go-playground/universal-translator v0.18.0 // indirect
	github.com/go-playground/validator/v10 v10.9.0 // indirect
	github.com/golang/protobuf v1.5.2 // indirect
	github.com/json-iterator/go v1.1.12 // indirect
	github.com/leodido/go-urn v1.2.1 // indirect
	github.com/mattn/go-isatty v0.0.14 // indirect
	github.com/modern-go/concurrent v0.0.0-20180306012644-bacd9c7ef1dd // indirect
	github.com/modern-go/reflect2 v1.0.2 // indirect
	github.com/ugorji/go/codec v1.2.6 // indirect
	golang.org/x/crypto v0.0.0-20211108221036-ceb1ce70b4fa // indirect
	golang.org/x/sys v0.0.0-20211109065445-02f5c0300f6e // indirect
	golang.org/x/text v0.3.6 // indirect
	google.golang.org/protobuf v1.26.0 // indirect
	gopkg.in/yaml.v2 v2.4.0 // indirect
)

require (
	github.com/gin-gonic/gin v1.7.4
	github.com/go-sql-driver/mysql v1.6.0 // indirect
	github.com/golang-jwt/jwt v3.2.2+incompatible
	github.com/jinzhu/inflection v1.0.0 // indirect
	github.com/jinzhu/now v1.1.2 // indirect
)
